Jackson do Pandeiro - The king of rithm
…
      Jackson do Pandeiro - The king of rithm

  May 29, 2018

Usarei a api do Spotify para obter dados sobre as músicas do Arctic Monkeys e então analisá-las e compará-las com as músicas do The Last Shadow Puppets, outra banda do cantor Alex Turner.

Visão Geral:

oi

Primeiro uma rápida olhada nos dados disponíveis através da api do Spotify para saber com que tipo de informações iremos trabalhar.

## # A tibble: 94 x 21
##    artist album_name album_release_d~ album_release_y~ album_popularity
##    <chr>  <chr>      <date>                      <int>            <int>
##  1 Arcti~ Whatever ~ 2006-02-21                   2006               61
##  2 Arcti~ Whatever ~ 2006-02-21                   2006               61
##  3 Arcti~ Whatever ~ 2006-02-21                   2006               61
##  4 Arcti~ Whatever ~ 2006-02-21                   2006               61
##  5 Arcti~ Whatever ~ 2006-02-21                   2006               61
##  6 Arcti~ Whatever ~ 2006-02-21                   2006               61
##  7 Arcti~ Whatever ~ 2006-02-21                   2006               61
##  8 Arcti~ Whatever ~ 2006-02-21                   2006               61
##  9 Arcti~ Whatever ~ 2006-02-21                   2006               61
## 10 Arcti~ Whatever ~ 2006-02-21                   2006               61
## # ... with 84 more rows, and 16 more variables: track_name <chr>,
## #   danceability <dbl>, energy <dbl>, key <chr>, loudness <dbl>,
## #   mode <chr>, speechiness <dbl>, acousticness <dbl>,
## #   instrumentalness <dbl>, liveness <dbl>, valence <dbl>, tempo <dbl>,
## #   duration_ms <dbl>, time_signature <int>, key_mode <chr>,
## #   track_popularity <int>
…
